%TGIF 4.2.5-QPL
state(0,37,100.000,0,0,0,16,1,13,1,1,3,0,1,0,1,0,'Courier',0,80640,0,0,1,10,0,0,1,1,0,16,0,0,1,1,1,1,1050,1485,1,0,2880,0).
%
% @(#)$Header$
% %W%
%
unit("1 pixel/pixel").
color_info(50,65535,0,[
	"Black", 0, 0, 0, 0, 0, 0, 1,
	"White", 65535, 65535, 65535, 65535, 65535, 65535, 1,
	"#000080", 0, 0, 32896, 0, 0, 32768, 1,
	"#008000", 0, 32896, 0, 0, 32768, 0, 1,
	"#008080", 0, 32896, 32896, 0, 32768, 32768, 1,
	"#800000", 32896, 0, 0, 32768, 0, 0, 1,
	"#800080", 32896, 0, 32896, 32768, 0, 32768, 1,
	"#ff8000", 65535, 32896, 0, 65280, 32768, 0, 1,
	"#808080", 32896, 32896, 32896, 32768, 32768, 32768, 1,
	"#c0c0c0", 49344, 49344, 49344, 49152, 49152, 49152, 1,
	"#0000ff", 0, 0, 65535, 0, 0, 65280, 1,
	"#00ff00", 0, 65535, 0, 0, 65280, 0, 1,
	"#00ffff", 0, 65535, 65535, 0, 65280, 65280, 1,
	"#ff0000", 65535, 0, 0, 65280, 0, 0, 1,
	"#ff00ff", 65535, 0, 65535, 65280, 0, 65280, 1,
	"#ffff00", 65535, 65535, 0, 65280, 65280, 0, 1,
	"#4c4c4c", 19532, 19532, 19532, 19456, 19456, 19456, 1,
	"#b3b3b3", 46003, 46003, 46003, 45824, 45824, 45824, 1,
	"#e6e6e6", 59110, 59110, 59110, 58880, 58880, 58880, 1,
	"#dc2300", 56540, 8995, 0, 56320, 8960, 0, 1,
	"#ff3333", 65535, 13107, 13107, 65280, 13056, 13056, 1,
	"#b84747", 47288, 18247, 18247, 47104, 18176, 18176, 1,
	"#99284c", 39321, 10280, 19532, 39168, 10240, 19456, 1,
	"#94476b", 38036, 18247, 27499, 37888, 18176, 27392, 1,
	"#9966cc", 39321, 26214, 52428, 39168, 26112, 52224, 1,
	"#6b2394", 27499, 8995, 38036, 27392, 8960, 37888, 1,
	"#5e11a6", 24158, 4369, 42662, 24064, 4352, 42496, 1,
	"#4700b8", 18247, 0, 47288, 18176, 0, 47104, 1,
	"#2323dc", 8995, 8995, 56540, 8960, 8960, 56320, 1,
	"#0099ff", 0, 39321, 65535, 0, 39168, 65280, 1,
	"#99ccff", 39321, 52428, 65535, 39168, 52224, 65280, 1,
	"#00dcff", 0, 56540, 65535, 0, 56320, 65280, 1,
	"#23b8dc", 8995, 47288, 56540, 8960, 47104, 56320, 1,
	"#33a3a3", 13107, 41891, 41891, 13056, 41728, 41728, 1,
	"#355e00", 13621, 24158, 0, 13568, 24064, 0, 1,
	"#7da647", 32125, 42662, 18247, 32000, 42496, 18176, 1,
	"#00ae00", 0, 44718, 0, 0, 44544, 0, 1,
	"#3deb3d", 15677, 60395, 15677, 15616, 60160, 15616, 1,
	"#ffff99", 65535, 65535, 39321, 65280, 65280, 39168, 1,
	"#e6e64c", 59110, 59110, 19532, 58880, 58880, 19456, 1,
	"#b3b300", 46003, 46003, 0, 45824, 45824, 0, 1,
	"#666600", 26214, 26214, 0, 26112, 26112, 0, 1,
	"#4c1900", 19532, 6425, 0, 19456, 6400, 0, 1,
	"#663300", 26214, 13107, 0, 26112, 13056, 0, 1,
	"#804c19", 32896, 19532, 6425, 32768, 19456, 6400, 1,
	"#996633", 39321, 26214, 13107, 39168, 26112, 13056, 1,
	"#cc6633", 52428, 26214, 13107, 52224, 26112, 13056, 1,
	"#ff6633", 65535, 26214, 13107, 65280, 26112, 13056, 1,
	"#ff9966", 65535, 39321, 26214, 65280, 39168, 26112, 1,
	"#ffcc99", 65535, 52428, 39321, 65280, 52224, 39168, 1
]).
script_frac("0.6").
fg_bg_colors('#ff0000','white').
dont_reencode("FFDingbests:ZapfDingbats").
objshadow_info('#c0c0c0',2,2).
rotate_pivot(0,0,0,0).
spline_tightness(1).
page(1,"",1,'').
text('Black',90,117,1,0,1,36,16,60,13,3,0,0,0,0,-65534,36,16,0,0,"",0,0,0,0,130,'',[
minilines(36,16,0,0,0,0,0,[
mini_line(36,13,3,0,0,0,[
str_block(0,36,13,3,0,-2,0,0,0,[
str_seg('#0000ff','Courier',0,80640,36,13,3,0,-2,0,0,0,0,0,
	"row0")])
])
])]).
text('Black',90,167,1,0,1,36,16,63,13,3,0,0,0,0,-65534,36,16,0,0,"",0,0,0,0,180,'',[
minilines(36,16,0,0,0,0,0,[
mini_line(36,13,3,0,0,0,[
str_block(0,36,13,3,0,-3,0,0,0,[
str_seg('#0000ff','Courier',0,80640,36,13,3,0,-3,0,0,0,0,0,
	"row1")])
])
])]).
text('Black',90,217,1,0,1,36,16,65,13,3,0,0,0,0,-65534,36,16,0,0,"",0,0,0,0,230,'',[
minilines(36,16,0,0,0,0,0,[
mini_line(36,13,3,0,0,0,[
str_block(0,36,13,3,0,-2,0,0,0,[
str_seg('#0000ff','Courier',0,80640,36,13,3,0,-2,0,0,0,0,0,
	"row2")])
])
])]).
text('Black',90,267,1,0,1,36,16,67,13,3,0,0,0,0,-65534,36,16,0,0,"",0,0,0,0,280,'',[
minilines(36,16,0,0,0,0,0,[
mini_line(36,13,3,0,0,0,[
str_block(0,36,13,3,0,-2,0,0,0,[
str_seg('#0000ff','Courier',0,80640,36,13,3,0,-2,0,0,0,0,0,
	"row3")])
])
])]).
text('Black',160,67,1,0,1,63,16,74,13,3,0,0,0,0,-65534,63,16,0,0,"",0,0,0,0,80,'',[
minilines(63,16,0,0,0,0,0,[
mini_line(63,13,3,0,0,0,[
str_block(0,63,13,3,0,-2,0,0,0,[
str_seg('#ff0000','Courier',0,80640,63,13,3,0,-2,0,0,0,0,0,
	"column0")])
])
])]).
group([
box('Black','',150,100,230,150,0,1,1,0,0,0,0,0,0,'1',0,[
]),
box('Black','',230,100,310,150,0,1,1,3,0,0,0,0,0,'1',0,[
]),
box('Black','',310,100,390,150,0,1,1,5,0,0,0,0,0,'1',0,[
]),
box('Black','',390,100,470,150,0,1,1,7,0,0,0,0,0,'1',0,[
]),
box('Black','',470,100,550,150,0,1,1,9,0,0,0,0,0,'1',0,[
]),
box('Black','',150,150,230,200,0,1,1,15,0,0,0,0,0,'1',0,[
]),
box('Black','',230,150,310,200,0,1,1,16,0,0,0,0,0,'1',0,[
]),
box('Black','',310,150,390,200,0,1,1,17,0,0,0,0,0,'1',0,[
]),
box('Black','',390,150,470,200,0,1,1,18,0,0,0,0,0,'1',0,[
]),
box('Black','',470,150,550,200,0,1,1,19,0,0,0,0,0,'1',0,[
]),
box('Black','',150,200,230,250,0,1,1,25,0,0,0,0,0,'1',0,[
]),
box('Black','',230,200,310,250,0,1,1,26,0,0,0,0,0,'1',0,[
]),
box('Black','',310,200,390,250,0,1,1,27,0,0,0,0,0,'1',0,[
]),
box('Black','',390,200,470,250,0,1,1,28,0,0,0,0,0,'1',0,[
]),
box('Black','',470,200,550,250,0,1,1,29,0,0,0,0,0,'1',0,[
]),
box('Black','',150,250,230,300,0,1,1,35,0,0,0,0,0,'1',0,[
]),
box('Black','',230,250,310,300,0,1,1,36,0,0,0,0,0,'1',0,[
]),
box('Black','',310,250,390,300,0,1,1,37,0,0,0,0,0,'1',0,[
]),
box('Black','',390,250,470,300,0,1,1,38,0,0,0,0,0,'1',0,[
]),
box('Black','',470,250,550,300,0,1,1,39,0,0,0,0,0,'1',0,[
]),
box('Black','',150,300,230,350,0,1,1,45,0,0,0,0,0,'1',0,[
]),
box('Black','',230,300,310,350,0,1,1,46,0,0,0,0,0,'1',0,[
]),
box('Black','',310,300,390,350,0,1,1,47,0,0,0,0,0,'1',0,[
]),
box('Black','',390,300,470,350,0,1,1,48,0,0,0,0,0,'1',0,[
]),
box('Black','',470,300,550,350,0,1,1,49,0,0,0,0,0,'1',0,[
]),
box('Black','',150,350,230,400,0,1,1,55,0,0,0,0,0,'1',0,[
]),
box('Black','',230,350,310,400,0,1,1,56,0,0,0,0,0,'1',0,[
]),
box('Black','',310,350,390,400,0,1,1,57,0,0,0,0,0,'1',0,[
]),
box('Black','',390,350,470,400,0,1,1,58,0,0,0,0,0,'1',0,[
]),
box('Black','',470,350,550,400,0,1,1,59,0,0,0,0,0,'1',0,[
])
],
110,0,0,[
]).
text('Black',240,67,1,0,1,63,16,174,13,3,0,0,0,0,-65534,63,16,0,0,"",0,0,0,0,80,'',[
minilines(63,16,0,0,0,0,0,[
mini_line(63,13,3,0,0,0,[
str_block(0,63,13,3,0,-3,0,0,0,[
str_seg('#ff0000','Courier',0,80640,63,13,3,0,-3,0,0,0,0,0,
	"column1")])
])
])]).
text('Black',320,67,1,0,1,63,16,176,13,3,0,0,0,0,-65534,63,16,0,0,"",0,0,0,0,80,'',[
minilines(63,16,0,0,0,0,0,[
mini_line(63,13,3,0,0,0,[
str_block(0,63,13,3,0,-2,0,0,0,[
str_seg('#ff0000','Courier',0,80640,63,13,3,0,-2,0,0,0,0,0,
	"column2")])
])
])]).
text('Black',400,67,1,0,1,63,16,178,13,3,0,0,0,0,-65534,63,16,0,0,"",0,0,0,0,80,'',[
minilines(63,16,0,0,0,0,0,[
mini_line(63,13,3,0,0,0,[
str_block(0,63,13,3,0,-2,0,0,0,[
str_seg('#ff0000','Courier',0,80640,63,13,3,0,-2,0,0,0,0,0,
	"column3")])
])
])]).
poly('#ff0000','',2,[
	190,90,190,360],1,4,1,191,0,0,0,0,0,0,0,'4',0,0,
    "0","",[
    0,14,6,0,'14','6','0'],[0,14,6,0,'14','6','0'],[
]).
poly('#ff0000','',2,[
	270,90,270,360],1,4,1,193,0,0,0,0,0,0,0,'4',0,0,
    "0","",[
    0,14,6,0,'14','6','0'],[0,14,6,0,'14','6','0'],[
]).
poly('#ff0000','',2,[
	350,90,350,360],1,4,1,195,0,0,0,0,0,0,0,'4',0,0,
    "0","",[
    0,14,6,0,'14','6','0'],[0,14,6,0,'14','6','0'],[
]).
poly('#ff0000','',2,[
	430,90,430,360],1,4,1,197,0,0,0,0,0,0,0,'4',0,0,
    "0","",[
    0,14,6,0,'14','6','0'],[0,14,6,0,'14','6','0'],[
]).
poly('#0000ff','',2,[
	140,130,500,130],1,4,1,210,0,0,0,0,0,0,0,'4',0,0,
    "0","",[
    0,14,6,0,'14','6','0'],[0,14,6,0,'14','6','0'],[
]).
poly('#0000ff','',2,[
	140,180,500,180],1,4,1,213,0,0,0,0,0,0,0,'4',0,0,
    "0","",[
    0,14,6,0,'14','6','0'],[0,14,6,0,'14','6','0'],[
]).
poly('#0000ff','',2,[
	140,230,500,230],1,4,1,215,0,0,0,0,0,0,0,'4',0,0,
    "0","",[
    0,14,6,0,'14','6','0'],[0,14,6,0,'14','6','0'],[
]).
poly('#0000ff','',2,[
	140,280,500,280],1,4,1,217,0,0,0,0,0,0,0,'4',0,0,
    "0","",[
    0,14,6,0,'14','6','0'],[0,14,6,0,'14','6','0'],[
]).
